<?xml version="1.0" encoding="utf-8"?>
<!-- Generator: Adobe Illustrator 21.0.0, SVG Export Plug-In . SVG Version: 6.00 Build 0)  -->
<svg version="1.1" id="Layer_1" xmlns="http://www.w3.org/2000/svg" xmlns:xlink="http://www.w3.org/1999/xlink" x="0px" y="0px"
	 viewBox="0 0 22.2 34.8" style="enable-background:new 0 0 22.2 34.8;" xml:space="preserve">
<style type="text/css">
	.st0{fill:#F2F2F2;}
	.st1{clip-path:url(#SVGID_2_);fill:#194271;}
	.st2{clip-path:url(#SVGID_2_);fill:#FFFFFF;}
	.st3{clip-path:url(#SVGID_2_);fill:#007AF6;}
	.st4{clip-path:url(#SVGID_4_);fill:#999999;}
	.st5{clip-path:url(#SVGID_6_);fill:#194271;}
	.st6{clip-path:url(#SVGID_6_);fill:#999999;}
	.st7{clip-path:url(#SVGID_8_);fill:#194271;}
	.st8{clip-path:url(#SVGID_8_);fill:#999999;}
	.st9{clip-path:url(#SVGID_10_);fill:#194271;}
	.st10{clip-path:url(#SVGID_10_);fill:#999999;}
	.st11{clip-path:url(#SVGID_12_);fill:#194271;}
	.st12{clip-path:url(#SVGID_12_);fill:#999999;}
	.st13{clip-path:url(#SVGID_14_);fill:#194271;}
	.st14{clip-path:url(#SVGID_14_);fill:#999999;}
	.st15{clip-path:url(#SVGID_16_);fill:#194271;}
	.st16{clip-path:url(#SVGID_16_);fill:#999999;}
	.st17{clip-path:url(#SVGID_18_);fill:#194271;}
	.st18{clip-path:url(#SVGID_18_);fill:#FFFFFF;}
	.st19{clip-path:url(#SVGID_18_);fill:#007AF6;}
	.st20{clip-path:url(#SVGID_20_);fill:#FFFFFF;}
	.st21{clip-path:url(#SVGID_20_);fill:#007AF6;}
	.st22{clip-path:url(#SVGID_22_);}
	.st23{clip-path:url(#SVGID_26_);}
	.st24{clip-path:url(#SVGID_30_);}
	.st25{clip-path:url(#SVGID_32_);}
	.st26{filter:url(#Adobe_OpacityMaskFilter);}
	.st27{clip-path:url(#SVGID_34_);fill:url(#SVGID_36_);}
	.st28{clip-path:url(#SVGID_34_);mask:url(#SVGID_35_);fill:url(#SVGID_37_);}
	.st29{clip-path:url(#SVGID_39_);fill:#FFFFFF;}
	.st30{clip-path:url(#SVGID_39_);fill:#007AF6;}
	.st31{clip-path:url(#SVGID_41_);fill:#007AF6;}
	.st32{clip-path:url(#SVGID_41_);fill:#194271;}
	.st33{clip-path:url(#SVGID_43_);fill:#194271;}
	.st34{clip-path:url(#SVGID_43_);fill:#FFFFFF;}
	.st35{clip-path:url(#SVGID_45_);fill:none;stroke:#194271;stroke-width:0.784;stroke-miterlimit:10;}
	.st36{clip-path:url(#SVGID_45_);fill:#194271;}
	.st37{clip-path:url(#SVGID_45_);fill:#007AF6;}
	.st38{clip-path:url(#SVGID_45_);fill:#FFFFFF;}
	.st39{clip-path:url(#SVGID_47_);fill:url(#SVGID_48_);}
	.st40{clip-path:url(#SVGID_50_);fill:url(#SVGID_51_);}
	.st41{clip-path:url(#SVGID_53_);fill:url(#SVGID_54_);}
	.st42{clip-path:url(#SVGID_56_);fill:url(#SVGID_57_);}
	.st43{clip-path:url(#SVGID_59_);fill:url(#SVGID_60_);}
	.st44{clip-path:url(#SVGID_62_);fill:url(#SVGID_63_);}
	.st45{clip-path:url(#SVGID_65_);fill:#FFFFFF;}
	.st46{clip-path:url(#SVGID_65_);fill:#194271;}
	.st47{clip-path:url(#SVGID_65_);fill:#25D366;}
	.st48{fill:#007AF6;}
	.st49{fill:none;stroke:#007AF6;stroke-width:1.8;stroke-miterlimit:10;}
	.st50{clip-path:url(#SVGID_67_);fill:#FFFFFF;}
	.st51{clip-path:url(#SVGID_69_);fill:none;stroke:#FFFFFF;stroke-width:0.5;stroke-miterlimit:10;}
	.st52{fill:none;}
	.st53{fill:#FFFFFF;}
	.st54{fill:none;stroke:#FFFFFF;stroke-width:1.8;stroke-miterlimit:10;}
</style>
<path class="st53" d="M4.9,34.8h14.5c0.4,0,0.8-0.3,0.8-0.8v-5.9l0.1-0.1c1.3-1.4,2-3.3,2-5.2V7c0-1.6-1.3-2.8-2.8-2.8
	c-0.4,0-0.7,0.1-1,0.2l-0.3,0.1L18,4.2c-0.3-1.2-1.5-2.1-2.7-2.1c-0.4,0-0.7,0.1-1,0.2l-0.3,0.1l-0.1-0.3C13.5,0.9,12.4,0,11.1,0
	S8.7,0.9,8.4,2.1L8.3,2.4L8,2.3C7.7,2.1,7.3,2.1,7,2.1c-1.6,0-2.8,1.3-2.8,2.8v9l-0.4-0.3c-0.9-0.6-1.9-1-2.9-1
	c-0.4,0-0.8,0.3-0.8,0.8v7.8c0,2.9,1.5,5.6,4,7.1l0.1,0.1V34C4.1,34.5,4.5,34.8,4.9,34.8 M1.5,21.1v-7l0.4,0.1
	c1.4,0.5,2.3,1.8,2.3,3.2v2.1c0,0.4,0.3,0.8,0.8,0.8c0.4,0,0.8-0.3,0.8-0.8V4.9c0-0.7,0.6-1.3,1.3-1.3c0.7,0,1.3,0.6,1.3,1.3v10.5
	c0,0.4,0.3,0.8,0.8,0.8c0.4,0,0.8-0.3,0.8-0.8V2.8c0-0.7,0.6-1.3,1.3-1.3c0.7,0,1.3,0.6,1.3,1.3v12.6c0,0.4,0.3,0.8,0.8,0.8
	c0.4,0,0.8-0.3,0.8-0.8V4.9c0-0.7,0.6-1.3,1.3-1.3c0.7,0,1.3,0.6,1.3,1.3v10.5c0,0.4,0.3,0.8,0.8,0.8c0.4,0,0.8-0.3,0.8-0.8V7
	c0-0.7,0.6-1.3,1.3-1.3c0.7,0,1.3,0.6,1.3,1.3v15.9c0,1.7-0.7,3.3-1.8,4.5c-0.1,0.1-0.2,0.3-0.2,0.5v5.5h-13v-5.5
	c0-0.3-0.2-0.6-0.4-0.7C2.9,26,1.5,23.7,1.5,21.1"/>
<path class="st53" d="M13.2,18.5c0.6,0,1,0.5,1,1c0,0.6-0.5,1-1,1c-0.6,0-1-0.5-1-1C12.1,19,12.6,18.5,13.2,18.5"/>
<path class="st53" d="M9,18.5c0.6,0,1,0.5,1,1c0,0.6-0.5,1-1,1c-0.6,0-1-0.5-1-1C8,19,8.5,18.5,9,18.5"/>
<path class="st53" d="M17.3,18.5c0.6,0,1,0.5,1,1c0,0.6-0.5,1-1,1c-0.6,0-1-0.5-1-1C16.3,19,16.8,18.5,17.3,18.5"/>
<path class="st53" d="M15.3,22.6c0.6,0,1,0.5,1,1c0,0.6-0.5,1-1,1c-0.6,0-1-0.5-1-1C14.2,23.1,14.7,22.6,15.3,22.6"/>
<path class="st53" d="M11.1,22.6c0.6,0,1,0.5,1,1c0,0.6-0.5,1-1,1c-0.6,0-1-0.5-1-1C10.1,23.1,10.5,22.6,11.1,22.6"/>
<path class="st53" d="M13.2,26.8c0.6,0,1,0.5,1,1c0,0.6-0.5,1-1,1c-0.6,0-1-0.5-1-1C12.1,27.3,12.6,26.8,13.2,26.8"/>
</svg>
