<?xml version="1.0" encoding="utf-8"?>
<!-- Generator: Adobe Illustrator 21.0.0, SVG Export Plug-In . SVG Version: 6.00 Build 0)  -->
<svg version="1.1" id="Layer_1" xmlns="http://www.w3.org/2000/svg" xmlns:xlink="http://www.w3.org/1999/xlink" x="0px" y="0px"
	 viewBox="0 0 33.4 33.4" style="enable-background:new 0 0 33.4 33.4;" xml:space="preserve">
<style type="text/css">
	.st0{fill:#F2F2F2;}
	.st1{clip-path:url(#SVGID_2_);fill:#194271;}
	.st2{clip-path:url(#SVGID_2_);fill:#FFFFFF;}
	.st3{clip-path:url(#SVGID_2_);fill:#007AF6;}
	.st4{clip-path:url(#SVGID_4_);fill:#999999;}
	.st5{clip-path:url(#SVGID_6_);fill:#194271;}
	.st6{clip-path:url(#SVGID_6_);fill:#999999;}
	.st7{clip-path:url(#SVGID_8_);fill:#194271;}
	.st8{clip-path:url(#SVGID_8_);fill:#999999;}
	.st9{clip-path:url(#SVGID_10_);fill:#194271;}
	.st10{clip-path:url(#SVGID_10_);fill:#999999;}
	.st11{clip-path:url(#SVGID_12_);fill:#194271;}
	.st12{clip-path:url(#SVGID_12_);fill:#999999;}
	.st13{clip-path:url(#SVGID_14_);fill:#194271;}
	.st14{clip-path:url(#SVGID_14_);fill:#999999;}
	.st15{clip-path:url(#SVGID_16_);fill:#194271;}
	.st16{clip-path:url(#SVGID_16_);fill:#999999;}
	.st17{clip-path:url(#SVGID_18_);fill:#194271;}
	.st18{clip-path:url(#SVGID_18_);fill:#FFFFFF;}
	.st19{clip-path:url(#SVGID_18_);fill:#007AF6;}
	.st20{clip-path:url(#SVGID_20_);fill:#FFFFFF;}
	.st21{clip-path:url(#SVGID_20_);fill:#007AF6;}
	.st22{clip-path:url(#SVGID_22_);}
	.st23{clip-path:url(#SVGID_26_);}
	.st24{clip-path:url(#SVGID_30_);}
	.st25{clip-path:url(#SVGID_32_);}
	.st26{filter:url(#Adobe_OpacityMaskFilter);}
	.st27{clip-path:url(#SVGID_34_);fill:url(#SVGID_36_);}
	.st28{clip-path:url(#SVGID_34_);mask:url(#SVGID_35_);fill:url(#SVGID_37_);}
	.st29{clip-path:url(#SVGID_39_);fill:#FFFFFF;}
	.st30{clip-path:url(#SVGID_39_);fill:#007AF6;}
	.st31{clip-path:url(#SVGID_41_);fill:#007AF6;}
	.st32{clip-path:url(#SVGID_41_);fill:#194271;}
	.st33{clip-path:url(#SVGID_43_);fill:#194271;}
	.st34{clip-path:url(#SVGID_43_);fill:#FFFFFF;}
	.st35{clip-path:url(#SVGID_45_);fill:none;stroke:#194271;stroke-width:0.784;stroke-miterlimit:10;}
	.st36{clip-path:url(#SVGID_45_);fill:#194271;}
	.st37{clip-path:url(#SVGID_45_);fill:#007AF6;}
	.st38{clip-path:url(#SVGID_45_);fill:#FFFFFF;}
	.st39{clip-path:url(#SVGID_47_);fill:url(#SVGID_48_);}
	.st40{clip-path:url(#SVGID_50_);fill:url(#SVGID_51_);}
	.st41{clip-path:url(#SVGID_53_);fill:url(#SVGID_54_);}
	.st42{clip-path:url(#SVGID_56_);fill:url(#SVGID_57_);}
	.st43{clip-path:url(#SVGID_59_);fill:url(#SVGID_60_);}
	.st44{clip-path:url(#SVGID_62_);fill:url(#SVGID_63_);}
	.st45{clip-path:url(#SVGID_65_);fill:#FFFFFF;}
	.st46{clip-path:url(#SVGID_65_);fill:#194271;}
	.st47{clip-path:url(#SVGID_65_);fill:#25D366;}
	.st48{fill:#007AF6;}
	.st49{fill:none;stroke:#007AF6;stroke-width:1.8;stroke-miterlimit:10;}
	.st50{clip-path:url(#SVGID_67_);fill:#FFFFFF;}
	.st51{clip-path:url(#SVGID_69_);fill:none;stroke:#FFFFFF;stroke-width:0.5;stroke-miterlimit:10;}
	.st52{fill:none;}
	.st53{fill:#FFFFFF;}
	.st54{fill:none;stroke:#FFFFFF;stroke-width:1.8;stroke-miterlimit:10;}
</style>
<path class="st48" d="M16.7,0C7.5,0,0,7.5,0,16.7c0,9.2,7.5,16.7,16.7,16.7s16.7-7.5,16.7-16.7C33.4,7.5,25.9,0,16.7,0 M16.7,32.3
	c-8.6,0-15.6-7-15.6-15.6c0-8.6,7-15.6,15.6-15.6s15.6,7,15.6,15.6C32.3,25.3,25.3,32.3,16.7,32.3"/>
<path class="st48" d="M22.1,19.9c0-0.9-0.8-1.7-1.7-1.7c-0.4,0-0.8,0.2-1.1,0.5l-2.5,2.5l-2.5-2.5c-0.3-0.3-0.7-0.5-1.1-0.5
	c-0.9,0-1.7,0.8-1.7,1.7c0,0.4,0.2,0.8,0.5,1.1l3.1,3.1c0.1,0.1,0.2,0.2,0.2,0.4v2.8c0,0.9,0.7,1.6,1.6,1.6c0.9,0,1.6-0.7,1.6-1.6
	v-2.8c0-0.1,0.1-0.3,0.2-0.4l3.1-3.1C21.9,20.8,22.1,20.4,22.1,19.9 M20.9,20.3l-3.1,3.1c-0.3,0.3-0.5,0.7-0.5,1.1v2.8
	c0,0.3-0.2,0.5-0.5,0.5c-0.3,0-0.5-0.2-0.5-0.5v-2.8c0-0.4-0.2-0.8-0.5-1.1l-3.1-3.1c-0.1-0.1-0.2-0.2-0.2-0.4
	c0-0.3,0.3-0.6,0.6-0.6c0.1,0,0.3,0.1,0.4,0.2l3.3,3.3l3.3-3.3c0.1-0.1,0.2-0.2,0.4-0.2c0.3,0,0.6,0.3,0.6,0.6
	C21,20.1,21,20.2,20.9,20.3"/>
<path class="st48" d="M16.7,2.2c-8,0-14.5,6.5-14.5,14.5c0,8,6.5,14.5,14.5,14.5s14.5-6.5,14.5-14.5C31.2,8.7,24.7,2.2,16.7,2.2
	 M25.4,11.2L22.2,8c-0.1-0.1-0.2-0.2-0.2-0.4c0-0.3,0.3-0.6,0.6-0.6c0.1,0,0.3,0.1,0.4,0.2l3.3,3.3l1.4-1.4c0.2,0.3,0.5,0.7,0.7,1.1
	l-1,1c-0.3,0.3-0.5,0.7-0.5,1.1v2.8c0,0.3-0.2,0.5-0.5,0.5s-0.5-0.2-0.5-0.5v-2.8C25.9,11.9,25.7,11.5,25.4,11.2 M5.9,23.6v1.2
	c-1-1.4-1.8-3-2.3-4.7l1.7,1.7l3.3-3.3c0.1-0.1,0.2-0.2,0.4-0.2c0.3,0,0.6,0.3,0.6,0.6c0,0.1-0.1,0.3-0.2,0.4l-3.1,3.1
	C6.1,22.8,5.9,23.2,5.9,23.6 M16.7,30.2c-3.8,0-7.2-1.6-9.7-4.1v-2.4c0-0.1,0.1-0.3,0.2-0.4l3.1-3.1c0.3-0.3,0.5-0.7,0.5-1.1
	c0-0.9-0.8-1.7-1.7-1.7c-0.4,0-0.8,0.2-1.1,0.5l-2.5,2.5l-2.1-2.1c-0.1-0.5-0.1-1-0.1-1.5c0-7.4,6-13.5,13.5-13.5
	c4.2,0,8,1.9,10.4,5l-0.7,0.7l-2.5-2.5c-0.3-0.3-0.7-0.5-1.1-0.5c-0.9,0-1.7,0.8-1.7,1.7c0,0.4,0.2,0.8,0.5,1.1l3.1,3.1
	c0.1,0.1,0.2,0.2,0.2,0.4v2.8c0,0.9,0.7,1.6,1.6,1.6S28,16,28,15.1v-2.8c0-0.1,0.1-0.3,0.2-0.4l0.8-0.8c0.8,1.7,1.2,3.6,1.2,5.6
	C30.2,24.1,24.1,30.2,16.7,30.2"/>
<path class="st48" d="M19.2,15.7c0.3,0.3,0.7,0.5,1.1,0.5c0.9,0,1.7-0.8,1.7-1.7c0-0.4-0.2-0.8-0.5-1.1l-3.1-3.1
	c-0.1-0.1-0.2-0.2-0.2-0.4V7c0-0.9-0.7-1.6-1.6-1.6c-0.9,0-1.6,0.7-1.6,1.6v2.8c0,0.1-0.1,0.3-0.2,0.4l-3.1,3.1
	c-0.3,0.3-0.5,0.7-0.5,1.1c0,0.9,0.8,1.7,1.7,1.7c0.4,0,0.8-0.2,1.1-0.5l2.5-2.5L19.2,15.7z M13.4,14.9c-0.1,0.1-0.2,0.2-0.4,0.2
	c-0.3,0-0.6-0.3-0.6-0.6c0-0.1,0.1-0.3,0.2-0.4l3.1-3.1c0.3-0.3,0.5-0.7,0.5-1.1V7c0-0.3,0.2-0.5,0.5-0.5c0.3,0,0.5,0.2,0.5,0.5v2.8
	c0,0.4,0.2,0.8,0.5,1.1l3.1,3.1c0.1,0.1,0.2,0.2,0.2,0.4c0,0.3-0.3,0.6-0.6,0.6c-0.1,0-0.3-0.1-0.4-0.2l-3.3-3.3L13.4,14.9z"/>
</svg>
