<?xml version="1.0" encoding="utf-8"?>
<!-- Generator: Adobe Illustrator 21.0.0, SVG Export Plug-In . SVG Version: 6.00 Build 0)  -->
<svg version="1.1" id="Layer_1" xmlns="http://www.w3.org/2000/svg" xmlns:xlink="http://www.w3.org/1999/xlink" x="0px" y="0px"
	 viewBox="0 0 27.7 34.2" style="enable-background:new 0 0 27.7 34.2;" xml:space="preserve">
<style type="text/css">
	.st0{fill:#F2F2F2;}
	.st1{clip-path:url(#SVGID_2_);fill:#194271;}
	.st2{clip-path:url(#SVGID_2_);fill:#FFFFFF;}
	.st3{clip-path:url(#SVGID_2_);fill:#007AF6;}
	.st4{clip-path:url(#SVGID_4_);fill:#999999;}
	.st5{clip-path:url(#SVGID_6_);fill:#194271;}
	.st6{clip-path:url(#SVGID_6_);fill:#999999;}
	.st7{clip-path:url(#SVGID_8_);fill:#194271;}
	.st8{clip-path:url(#SVGID_8_);fill:#999999;}
	.st9{clip-path:url(#SVGID_10_);fill:#194271;}
	.st10{clip-path:url(#SVGID_10_);fill:#999999;}
	.st11{clip-path:url(#SVGID_12_);fill:#194271;}
	.st12{clip-path:url(#SVGID_12_);fill:#999999;}
	.st13{clip-path:url(#SVGID_14_);fill:#194271;}
	.st14{clip-path:url(#SVGID_14_);fill:#999999;}
	.st15{clip-path:url(#SVGID_16_);fill:#194271;}
	.st16{clip-path:url(#SVGID_16_);fill:#999999;}
	.st17{clip-path:url(#SVGID_18_);fill:#194271;}
	.st18{clip-path:url(#SVGID_18_);fill:#FFFFFF;}
	.st19{clip-path:url(#SVGID_18_);fill:#007AF6;}
	.st20{clip-path:url(#SVGID_20_);fill:#FFFFFF;}
	.st21{clip-path:url(#SVGID_20_);fill:#007AF6;}
	.st22{clip-path:url(#SVGID_22_);}
	.st23{clip-path:url(#SVGID_26_);}
	.st24{clip-path:url(#SVGID_30_);}
	.st25{clip-path:url(#SVGID_32_);}
	.st26{filter:url(#Adobe_OpacityMaskFilter);}
	.st27{clip-path:url(#SVGID_34_);fill:url(#SVGID_36_);}
	.st28{clip-path:url(#SVGID_34_);mask:url(#SVGID_35_);fill:url(#SVGID_37_);}
	.st29{clip-path:url(#SVGID_39_);fill:#FFFFFF;}
	.st30{clip-path:url(#SVGID_39_);fill:#007AF6;}
	.st31{clip-path:url(#SVGID_41_);fill:#007AF6;}
	.st32{clip-path:url(#SVGID_41_);fill:#194271;}
	.st33{clip-path:url(#SVGID_43_);fill:#194271;}
	.st34{clip-path:url(#SVGID_43_);fill:#FFFFFF;}
	.st35{clip-path:url(#SVGID_45_);fill:none;stroke:#194271;stroke-width:0.784;stroke-miterlimit:10;}
	.st36{clip-path:url(#SVGID_45_);fill:#194271;}
	.st37{clip-path:url(#SVGID_45_);fill:#007AF6;}
	.st38{clip-path:url(#SVGID_45_);fill:#FFFFFF;}
	.st39{clip-path:url(#SVGID_47_);fill:url(#SVGID_48_);}
	.st40{clip-path:url(#SVGID_50_);fill:url(#SVGID_51_);}
	.st41{clip-path:url(#SVGID_53_);fill:url(#SVGID_54_);}
	.st42{clip-path:url(#SVGID_56_);fill:url(#SVGID_57_);}
	.st43{clip-path:url(#SVGID_59_);fill:url(#SVGID_60_);}
	.st44{clip-path:url(#SVGID_62_);fill:url(#SVGID_63_);}
	.st45{clip-path:url(#SVGID_65_);fill:#FFFFFF;}
	.st46{clip-path:url(#SVGID_65_);fill:#194271;}
	.st47{clip-path:url(#SVGID_65_);fill:#25D366;}
	.st48{fill:#007AF6;}
	.st49{fill:none;stroke:#007AF6;stroke-width:1.8;stroke-miterlimit:10;}
	.st50{clip-path:url(#SVGID_67_);fill:#FFFFFF;}
	.st51{clip-path:url(#SVGID_69_);fill:none;stroke:#FFFFFF;stroke-width:0.5;stroke-miterlimit:10;}
	.st52{fill:none;}
	.st53{fill:#FFFFFF;}
	.st54{fill:none;stroke:#FFFFFF;stroke-width:1.8;stroke-miterlimit:10;}
</style>
<path class="st53" d="M26.3,3.5L15.2,0.2c-0.9-0.3-1.8-0.3-2.6,0L1.4,3.5C0.6,3.7,0,4.5,0,5.3v9.2c0,4.3,1.3,8.4,3.7,11.9
	c2.3,3.4,5.6,6,9.4,7.6c0.2,0.1,0.5,0.1,0.7,0.1s0.5,0,0.7-0.1c3.8-1.6,7.1-4.2,9.4-7.6c2.4-3.5,3.7-7.6,3.7-11.9V5.3
	C27.7,4.5,27.1,3.7,26.3,3.5 M26.1,14.5c0,3.9-1.2,7.7-3.4,11c-2.2,3.2-5.2,5.6-8.7,7c-0.1,0-0.2,0-0.3,0c-3.5-1.4-6.6-3.9-8.7-7
	c-2.2-3.2-3.4-7-3.4-11V5.3C1.6,5.2,1.7,5,1.8,5L13,1.7c0.3-0.1,0.6-0.1,0.9-0.1c0.3,0,0.6,0,0.9,0.1L25.8,5c0.2,0,0.3,0.2,0.3,0.4
	V14.5z"/>
<path class="st53" d="M22.5,6.9l-8.3-2.4c-0.2-0.1-0.4-0.1-0.7,0L5.2,6.9C4.7,7.1,4.4,7.5,4.4,8v6.5c0,3.4,1,6.7,3,9.6
	c1.5,2.2,3.6,4,5.9,5.2c0.2,0.1,0.4,0.1,0.5,0.1c0.2,0,0.4,0,0.5-0.1c2.3-1.2,4.4-3,5.9-5.2c2-2.8,3-6.1,3-9.6V8
	C23.3,7.5,22.9,7.1,22.5,6.9 M21.7,14.5c0,3.1-0.9,6.1-2.7,8.7c-1.3,1.9-3.1,3.5-5.2,4.6c-2-1.1-3.8-2.7-5.2-4.6
	c-1.8-2.5-2.7-5.5-2.7-8.7V8.3L13.8,6l7.9,2.3V14.5z"/>
</svg>
