<?xml version="1.0" encoding="utf-8"?>
<!-- Generator: Adobe Illustrator 18.0.0, SVG Export Plug-In . SVG Version: 6.00 Build 0)  -->
<!DOCTYPE svg PUBLIC "-//W3C//DTD SVG 1.1//EN" "http://www.w3.org/Graphics/SVG/1.1/DTD/svg11.dtd">
<svg version="1.1" id="Capa_1" xmlns="http://www.w3.org/2000/svg" xmlns:xlink="http://www.w3.org/1999/xlink" x="0px" y="0px"
	 viewBox="0 0 41 39.9" enable-background="new 0 0 41 39.9" xml:space="preserve">
<path fill="#FFFFFF" d="M13.1,31.3c-2.4,0-4.3,1.9-4.3,4.3c0,2.4,1.9,4.3,4.3,4.3c2.4,0,4.3-1.9,4.3-4.3
	C17.4,33.3,15.4,31.3,13.1,31.3 M13.1,38c-1.3,0-2.4-1.1-2.4-2.4c0-1.3,1.1-2.4,2.4-2.4c1.3,0,2.4,1.1,2.4,2.4
	C15.5,36.9,14.4,38,13.1,38"/>
<path fill="#FFFFFF" d="M31.2,31.3c-2.4,0-4.3,1.9-4.3,4.3c0,2.4,1.9,4.3,4.3,4.3c2.4,0,4.3-1.9,4.3-4.3
	C35.4,33.3,33.5,31.3,31.2,31.3 M31.2,38c-1.3,0-2.4-1.1-2.4-2.4c0-1.3,1.1-2.4,2.4-2.4c1.3,0,2.4,1.1,2.4,2.4
	C33.5,36.9,32.5,38,31.2,38"/>
<path fill="#FFFFFF" d="M40,6l-31-0.4L8.2,2.9C7.6,1.2,6,0,4.1,0H1C0.4,0,0,0.4,0,1c0,0.5,0.4,1,1,1h3.2c1,0,1.9,0.7,2.3,1.7l6,18.2
	L12,22.9c-0.5,1.4-0.4,2.9,0.4,4.1c0.8,1.2,2.1,2,3.6,2h18.5c0.5,0,1-0.4,1-1c0-0.5-0.4-1-1-1H16c-0.8,0-1.6-0.4-2-1.1
	c-0.4-0.7-0.5-1.5-0.2-2.3l0.4-0.9l20-2.1c2.2-0.2,4-1.8,4.5-4l2.3-9.6c0.1-0.3,0-0.6-0.1-0.8C40.6,6.2,40.3,6,40,6 M36.8,16.3
	c-0.3,1.4-1.5,2.4-2.9,2.5l-19.8,2L9.7,7.5l29.2,0.4L36.8,16.3z"/>
</svg>
