<?xml version="1.0" encoding="utf-8"?>
<!-- Generator: Adobe Illustrator 18.0.0, SVG Export Plug-In . SVG Version: 6.00 Build 0)  -->
<!DOCTYPE svg PUBLIC "-//W3C//DTD SVG 1.1//EN" "http://www.w3.org/Graphics/SVG/1.1/DTD/svg11.dtd">
<svg version="1.1" id="Capa_1" xmlns="http://www.w3.org/2000/svg" xmlns:xlink="http://www.w3.org/1999/xlink" x="0px" y="0px"
	 viewBox="0 0 66 44" enable-background="new 0 0 66 44" xml:space="preserve">
<g>
	<defs>
		<rect id="SVGID_31_" width="66" height="44"/>
	</defs>
	<clipPath id="SVGID_2_">
		<use xlink:href="#SVGID_31_"  overflow="visible"/>
	</clipPath>
	<path clip-path="url(#SVGID_2_)" fill="#00559B" d="M59.1,0H6.9C3.1,0,0,3.1,0,6.9v30.3C0,40.9,3.1,44,6.9,44h52.3
		c3.8,0,6.9-3.1,6.9-6.9V6.9C66,3.1,62.9,0,59.1,0 M63.3,37.1c0,2.3-1.9,4.1-4.1,4.1H6.9c-2.3,0-4.1-1.9-4.1-4.1V6.9
		c0-2.3,1.9-4.1,4.1-4.1h52.3c2.3,0,4.1,1.9,4.1,4.1V37.1z"/>
</g>
<path fill="#00559B" d="M64.6,8.3H1.4C0.6,8.3,0,8.9,0,9.6v8.3c0,0.8,0.6,1.4,1.4,1.4h63.3c0.8,0,1.4-0.6,1.4-1.4V9.6
	C66,8.9,65.4,8.3,64.6,8.3 M63.3,16.5H2.8V11h60.5V16.5z"/>
<path fill="#00559B" d="M26.1,27.5H9.6c-0.8,0-1.4,0.6-1.4,1.4c0,0.8,0.6,1.4,1.4,1.4h16.5c0.8,0,1.4-0.6,1.4-1.4
	C27.5,28.1,26.9,27.5,26.1,27.5"/>
<path fill="#00559B" d="M26.1,33H9.6c-0.8,0-1.4,0.6-1.4,1.4c0,0.8,0.6,1.4,1.4,1.4h16.5c0.8,0,1.4-0.6,1.4-1.4
	C27.5,33.6,26.9,33,26.1,33"/>
<path fill="#00559B" d="M53.6,24.8h-2.8c-2.3,0-4.1,1.9-4.1,4.1v2.8c0,2.3,1.9,4.1,4.1,4.1h2.8c2.3,0,4.1-1.9,4.1-4.1v-2.8
	C57.8,26.6,55.9,24.8,53.6,24.8 M55,31.6c0,0.8-0.6,1.4-1.4,1.4h-2.8c-0.8,0-1.4-0.6-1.4-1.4v-2.8c0-0.8,0.6-1.4,1.4-1.4h2.8
	c0.8,0,1.4,0.6,1.4,1.4V31.6z"/>
</svg>
