<?xml version="1.0" encoding="utf-8"?>
<!-- Generator: Adobe Illustrator 21.0.0, SVG Export Plug-In . SVG Version: 6.00 Build 0)  -->
<svg version="1.1" id="Layer_1" xmlns="http://www.w3.org/2000/svg" xmlns:xlink="http://www.w3.org/1999/xlink" x="0px" y="0px"
	 viewBox="0 0 27.4 41" style="enable-background:new 0 0 27.4 41;" xml:space="preserve">
<style type="text/css">
	.st0{fill:#F2F2F2;}
	.st1{clip-path:url(#SVGID_2_);fill:#194271;}
	.st2{clip-path:url(#SVGID_2_);fill:#FFFFFF;}
	.st3{clip-path:url(#SVGID_2_);fill:#007AF6;}
	.st4{clip-path:url(#SVGID_4_);fill:#999999;}
	.st5{clip-path:url(#SVGID_6_);fill:#194271;}
	.st6{clip-path:url(#SVGID_6_);fill:#999999;}
	.st7{clip-path:url(#SVGID_8_);fill:#194271;}
	.st8{clip-path:url(#SVGID_8_);fill:#999999;}
	.st9{clip-path:url(#SVGID_10_);fill:#194271;}
	.st10{clip-path:url(#SVGID_10_);fill:#999999;}
	.st11{clip-path:url(#SVGID_12_);fill:#194271;}
	.st12{clip-path:url(#SVGID_12_);fill:#999999;}
	.st13{clip-path:url(#SVGID_14_);fill:#194271;}
	.st14{clip-path:url(#SVGID_14_);fill:#999999;}
	.st15{clip-path:url(#SVGID_16_);fill:#194271;}
	.st16{clip-path:url(#SVGID_16_);fill:#999999;}
	.st17{clip-path:url(#SVGID_18_);fill:#194271;}
	.st18{clip-path:url(#SVGID_18_);fill:#FFFFFF;}
	.st19{clip-path:url(#SVGID_18_);fill:#007AF6;}
	.st20{clip-path:url(#SVGID_20_);fill:#FFFFFF;}
	.st21{clip-path:url(#SVGID_20_);fill:#007AF6;}
	.st22{clip-path:url(#SVGID_22_);}
	.st23{clip-path:url(#SVGID_26_);}
	.st24{clip-path:url(#SVGID_30_);}
	.st25{clip-path:url(#SVGID_32_);}
	.st26{filter:url(#Adobe_OpacityMaskFilter);}
	.st27{clip-path:url(#SVGID_34_);fill:url(#SVGID_36_);}
	.st28{clip-path:url(#SVGID_34_);mask:url(#SVGID_35_);fill:url(#SVGID_37_);}
	.st29{clip-path:url(#SVGID_39_);fill:#FFFFFF;}
	.st30{clip-path:url(#SVGID_39_);fill:#007AF6;}
	.st31{clip-path:url(#SVGID_41_);fill:#007AF6;}
	.st32{clip-path:url(#SVGID_41_);fill:#194271;}
	.st33{clip-path:url(#SVGID_43_);fill:#194271;}
	.st34{clip-path:url(#SVGID_43_);fill:#FFFFFF;}
	.st35{clip-path:url(#SVGID_45_);fill:none;stroke:#194271;stroke-width:0.784;stroke-miterlimit:10;}
	.st36{clip-path:url(#SVGID_45_);fill:#194271;}
	.st37{clip-path:url(#SVGID_45_);fill:#007AF6;}
	.st38{clip-path:url(#SVGID_45_);fill:#FFFFFF;}
	.st39{clip-path:url(#SVGID_47_);fill:url(#SVGID_48_);}
	.st40{clip-path:url(#SVGID_50_);fill:url(#SVGID_51_);}
	.st41{clip-path:url(#SVGID_53_);fill:url(#SVGID_54_);}
	.st42{clip-path:url(#SVGID_56_);fill:url(#SVGID_57_);}
	.st43{clip-path:url(#SVGID_59_);fill:url(#SVGID_60_);}
	.st44{clip-path:url(#SVGID_62_);fill:url(#SVGID_63_);}
	.st45{clip-path:url(#SVGID_65_);fill:#FFFFFF;}
	.st46{clip-path:url(#SVGID_65_);fill:#194271;}
	.st47{clip-path:url(#SVGID_65_);fill:#25D366;}
	.st48{fill:#007AF6;}
	.st49{fill:none;stroke:#007AF6;stroke-width:1.8;stroke-miterlimit:10;}
	.st50{clip-path:url(#SVGID_67_);fill:#FFFFFF;}
	.st51{clip-path:url(#SVGID_69_);fill:none;stroke:#FFFFFF;stroke-width:0.5;stroke-miterlimit:10;}
	.st52{fill:none;}
	.st53{fill:#FFFFFF;}
	.st54{fill:none;stroke:#FFFFFF;stroke-width:1.8;stroke-miterlimit:10;}
</style>
<path class="st53" d="M13.7,0L3.1,16.7C1.1,19.9,0,23.5,0,27.3C0,34.9,6.2,41,13.7,41c7.6,0,13.7-6.2,13.7-13.7
	c0-3.8-1.1-7.4-3.1-10.6L13.7,0z M13.7,39C7.3,39,2,33.8,2,27.3c0-3.4,1-6.7,2.8-9.5l8.9-14.1l8.9,14.1c1.8,2.8,2.8,6.1,2.8,9.5
	C25.4,33.8,20.2,39,13.7,39"/>
<polygon class="st53" points="18.7,25.4 15,25.4 15,21.8 12.4,21.8 12.4,25.4 8.8,25.4 8.8,28 12.4,28 12.4,31.6 15,31.6 15,28 
	18.7,28 "/>
</svg>
