<?xml version="1.0" encoding="utf-8"?>
<!-- Generator: Adobe Illustrator 21.0.0, SVG Export Plug-In . SVG Version: 6.00 Build 0)  -->
<svg version="1.1" id="Layer_1" xmlns="http://www.w3.org/2000/svg" xmlns:xlink="http://www.w3.org/1999/xlink" x="0px" y="0px"
	 viewBox="0 0 35 35" style="enable-background:new 0 0 35 35;" xml:space="preserve">
<style type="text/css">
	.st0{fill:#F2F2F2;}
	.st1{clip-path:url(#SVGID_2_);fill:#194271;}
	.st2{clip-path:url(#SVGID_2_);fill:#FFFFFF;}
	.st3{clip-path:url(#SVGID_2_);fill:#007AF6;}
	.st4{clip-path:url(#SVGID_4_);fill:#999999;}
	.st5{clip-path:url(#SVGID_6_);fill:#194271;}
	.st6{clip-path:url(#SVGID_6_);fill:#999999;}
	.st7{clip-path:url(#SVGID_8_);fill:#194271;}
	.st8{clip-path:url(#SVGID_8_);fill:#999999;}
	.st9{clip-path:url(#SVGID_10_);fill:#194271;}
	.st10{clip-path:url(#SVGID_10_);fill:#999999;}
	.st11{clip-path:url(#SVGID_12_);fill:#194271;}
	.st12{clip-path:url(#SVGID_12_);fill:#999999;}
	.st13{clip-path:url(#SVGID_14_);fill:#194271;}
	.st14{clip-path:url(#SVGID_14_);fill:#999999;}
	.st15{clip-path:url(#SVGID_16_);fill:#194271;}
	.st16{clip-path:url(#SVGID_16_);fill:#999999;}
	.st17{clip-path:url(#SVGID_18_);fill:#194271;}
	.st18{clip-path:url(#SVGID_18_);fill:#FFFFFF;}
	.st19{clip-path:url(#SVGID_18_);fill:#007AF6;}
	.st20{clip-path:url(#SVGID_20_);fill:#FFFFFF;}
	.st21{clip-path:url(#SVGID_20_);fill:#007AF6;}
	.st22{clip-path:url(#SVGID_22_);}
	.st23{clip-path:url(#SVGID_26_);}
	.st24{clip-path:url(#SVGID_30_);}
	.st25{clip-path:url(#SVGID_32_);}
	.st26{filter:url(#Adobe_OpacityMaskFilter);}
	.st27{clip-path:url(#SVGID_34_);fill:url(#SVGID_36_);}
	.st28{clip-path:url(#SVGID_34_);mask:url(#SVGID_35_);fill:url(#SVGID_37_);}
	.st29{clip-path:url(#SVGID_39_);fill:#FFFFFF;}
	.st30{clip-path:url(#SVGID_39_);fill:#007AF6;}
	.st31{clip-path:url(#SVGID_41_);fill:#007AF6;}
	.st32{clip-path:url(#SVGID_41_);fill:#194271;}
	.st33{clip-path:url(#SVGID_43_);fill:#194271;}
	.st34{clip-path:url(#SVGID_43_);fill:#FFFFFF;}
	.st35{clip-path:url(#SVGID_45_);fill:none;stroke:#194271;stroke-width:0.784;stroke-miterlimit:10;}
	.st36{clip-path:url(#SVGID_45_);fill:#194271;}
	.st37{clip-path:url(#SVGID_45_);fill:#007AF6;}
	.st38{clip-path:url(#SVGID_45_);fill:#FFFFFF;}
	.st39{clip-path:url(#SVGID_47_);fill:url(#SVGID_48_);}
	.st40{clip-path:url(#SVGID_50_);fill:url(#SVGID_51_);}
	.st41{clip-path:url(#SVGID_53_);fill:url(#SVGID_54_);}
	.st42{clip-path:url(#SVGID_56_);fill:url(#SVGID_57_);}
	.st43{clip-path:url(#SVGID_59_);fill:url(#SVGID_60_);}
	.st44{clip-path:url(#SVGID_62_);fill:url(#SVGID_63_);}
	.st45{clip-path:url(#SVGID_65_);fill:#FFFFFF;}
	.st46{clip-path:url(#SVGID_65_);fill:#194271;}
	.st47{clip-path:url(#SVGID_65_);fill:#25D366;}
	.st48{fill:#007AF6;}
	.st49{fill:none;stroke:#007AF6;stroke-width:1.8;stroke-miterlimit:10;}
	.st50{clip-path:url(#SVGID_67_);fill:#FFFFFF;}
	.st51{clip-path:url(#SVGID_69_);fill:none;stroke:#FFFFFF;stroke-width:0.5;stroke-miterlimit:10;}
	.st52{fill:none;}
	.st53{fill:#FFFFFF;}
	.st54{fill:none;stroke:#FFFFFF;stroke-width:1.8;stroke-miterlimit:10;}
</style>
<path class="st53" d="M17.5,11c-2.6,2.6-4,6-4,9.6c0,3.6,1.4,7.1,4,9.6c0.4,0.4,1,0.7,1.6,0.7c0.6,0,1.2-0.2,1.6-0.7
	c0.9-0.9,0.9-2.4,0-3.3c-1.7-1.7-2.6-4-2.6-6.4c0-2.4,0.9-4.7,2.6-6.4c0.9-0.9,0.9-2.4,0-3.3C19.9,10.1,18.4,10.1,17.5,11
	 M19.9,13.3c-1.1,1.1-1.9,2.4-2.4,3.8c0-0.1-0.1-0.1-0.1-0.2c-0.1-0.1-0.3-0.2-0.4-0.2c-0.2,0-0.3,0.1-0.4,0.2
	c-0.1,0.1-0.2,0.3-0.2,0.4c0,0.2,0.1,0.3,0.2,0.4s0.3,0.2,0.4,0.2c0.1,0,0.2,0,0.3-0.1c-0.2,0.9-0.4,1.8-0.4,2.7
	c0,1.1,0.2,2.1,0.5,3.1c0,0,0,0,0,0c-0.1-0.1-0.3-0.2-0.4-0.2s-0.3,0.1-0.4,0.2c-0.1,0.1-0.2,0.3-0.2,0.4s0.1,0.3,0.2,0.4
	c0.1,0.1,0.3,0.2,0.4,0.2s0.3-0.1,0.4-0.2c0.1-0.1,0.2-0.2,0.2-0.4c0.5,1.4,1.3,2.6,2.4,3.7c0.4,0.4,0.4,1.1,0,1.5
	c-0.4,0.4-1.1,0.4-1.5,0c-2.3-2.3-3.5-5.2-3.6-8.4c0,0.1,0.1,0.1,0.1,0.2c0.1,0.1,0.3,0.2,0.4,0.2c0.2,0,0.3-0.1,0.4-0.2
	s0.2-0.3,0.2-0.4s-0.1-0.3-0.2-0.4c-0.1-0.1-0.3-0.2-0.4-0.2c-0.2,0-0.3,0.1-0.4,0.2c-0.1,0.1-0.1,0.1-0.1,0.2
	c0-3.2,1.3-6.3,3.6-8.6c0.2-0.2,0.5-0.3,0.7-0.3c0.3,0,0.5,0.1,0.7,0.3C20.3,12.3,20.3,12.9,19.9,13.3"/>
<path class="st53" d="M16.7,3.9c-5.9,1.3-8.7,7-8.8,7.2c-0.5,1.1-0.1,2.4,1,3c0.3,0.1,0.6,0.2,1,0.2c0.8,0,1.6-0.5,2-1.3
	c0,0,2-4,5.8-4.8c0.4-0.1,0.8-0.3,1.1-0.6v0c0.5-0.5,0.8-1.3,0.6-2.1C19.1,4.4,17.9,3.6,16.7,3.9 M17.9,6.7C17.7,6.9,17.6,7,17.4,7
	c-1.5,0.3-2.8,1.1-3.8,1.9c0,0,0-0.1,0-0.1c0-0.2-0.1-0.3-0.2-0.4S13.2,8.2,13,8.2c-0.2,0-0.3,0.1-0.4,0.2c-0.1,0.1-0.2,0.3-0.2,0.4
	s0.1,0.3,0.2,0.4c0.1,0.1,0.3,0.2,0.4,0.2c0,0,0,0,0.1,0c-1.5,1.5-2.3,3-2.3,3.1c-0.2,0.5-0.8,0.7-1.3,0.5C9,12.7,8.8,12.1,9,11.6
	c0-0.1,0.2-0.4,0.5-0.9c0,0.1,0.1,0.3,0.2,0.4c0.1,0.1,0.3,0.2,0.4,0.2c0.2,0,0.3-0.1,0.4-0.2c0.1-0.1,0.2-0.3,0.2-0.4
	c0-0.2-0.1-0.3-0.2-0.4c-0.1-0.1-0.3-0.2-0.4-0.2c-0.1,0-0.1,0-0.2,0c1-1.4,2.8-3.4,5.4-4.4c0,0.1,0,0.1,0,0.2
	c0,0.2,0.1,0.3,0.2,0.4c0.1,0.1,0.3,0.2,0.4,0.2s0.3-0.1,0.4-0.2c0.1-0.1,0.2-0.3,0.2-0.4c0-0.2-0.1-0.3-0.2-0.4
	c0,0-0.1-0.1-0.1-0.1c0.2-0.1,0.4-0.1,0.6-0.2c0.1,0,0.1,0,0.2,0c0.4,0,0.8,0.3,0.9,0.8C18.2,6.2,18.1,6.5,17.9,6.7"/>
<path class="st53" d="M4.4,16.6c-0.9,0.9-0.9,2.3,0,3.1c1,1,2.4,1.6,3.9,1.6c1.5,0,2.8-0.6,3.9-1.6c0.9-0.9,0.9-2.3,0-3.1
	c-0.9-0.9-2.3-0.9-3.1,0c-0.2,0.2-0.4,0.3-0.7,0.3c-0.3,0-0.5-0.1-0.7-0.3C6.7,15.7,5.2,15.7,4.4,16.6 M9.9,17.4
	c0.4-0.4,1-0.4,1.4,0c0.4,0.4,0.4,1,0,1.4c-0.8,0.8-1.9,1.2-3,1.2s-2.2-0.4-3-1.2c-0.4-0.4-0.4-1,0-1.4c0.2-0.2,0.4-0.3,0.7-0.3
	c0.2,0,0.5,0.1,0.7,0.3c0.4,0.4,1,0.7,1.6,0.7C8.9,18.1,9.4,17.9,9.9,17.4"/>
<path class="st53" d="M10.5,19c0.2,0,0.3-0.1,0.4-0.2c0.1-0.1,0.2-0.3,0.2-0.4c0-0.2-0.1-0.3-0.2-0.4c-0.1-0.1-0.3-0.2-0.4-0.2
	c-0.2,0-0.3,0.1-0.4,0.2c-0.1,0.1-0.2,0.3-0.2,0.4c0,0.2,0.1,0.3,0.2,0.4C10.1,18.9,10.3,19,10.5,19"/>
<path class="st53" d="M5.8,18c-0.1,0.1-0.2,0.3-0.2,0.4c0,0.2,0.1,0.3,0.2,0.4c0.1,0.1,0.3,0.2,0.4,0.2c0.2,0,0.3-0.1,0.4-0.2
	c0.1-0.1,0.2-0.3,0.2-0.4c0-0.2-0.1-0.3-0.2-0.4c-0.1-0.1-0.3-0.2-0.4-0.2C6.1,17.8,5.9,17.9,5.8,18"/>
<path class="st53" d="M17.9,28c0.2,0,0.3-0.1,0.4-0.2c0.1-0.1,0.2-0.3,0.2-0.4c0-0.2-0.1-0.3-0.2-0.4c-0.1-0.1-0.3-0.2-0.4-0.2
	c-0.2,0-0.3,0.1-0.4,0.2c-0.1,0.1-0.2,0.3-0.2,0.4c0,0.2,0.1,0.3,0.2,0.4S17.7,28,17.9,28"/>
<path class="st53" d="M11.7,23.3c0-0.2-0.1-0.3-0.2-0.4c-0.1-0.1-0.3-0.2-0.4-0.2c-0.2,0-0.3,0.1-0.4,0.2c-0.1,0.1-0.2,0.3-0.2,0.4
	c0,0.2,0.1,0.3,0.2,0.4c0.1,0.1,0.3,0.2,0.4,0.2c0.2,0,0.3-0.1,0.4-0.2C11.6,23.6,11.7,23.4,11.7,23.3"/>
<path class="st53" d="M5.7,22.2c-0.1,0.1-0.2,0.3-0.2,0.4c0,0.2,0.1,0.3,0.2,0.4c0.1,0.1,0.3,0.2,0.4,0.2c0.2,0,0.3-0.1,0.4-0.2
	c0.1-0.1,0.2-0.3,0.2-0.4c0-0.2-0.1-0.3-0.2-0.4c-0.1-0.1-0.3-0.2-0.4-0.2C6,22.1,5.8,22.1,5.7,22.2"/>
<path class="st53" d="M11.6,28.8c0.2,0,0.3-0.1,0.4-0.2c0.1-0.1,0.2-0.3,0.2-0.4c0-0.2-0.1-0.3-0.2-0.4c-0.1-0.1-0.3-0.2-0.4-0.2
	c-0.2,0-0.3,0.1-0.4,0.2C11.1,27.8,11,28,11,28.1c0,0.2,0.1,0.3,0.2,0.4C11.3,28.7,11.5,28.8,11.6,28.8"/>
<path class="st53" d="M23.7,6.6c-0.2,0-0.3,0.1-0.4,0.2c-0.1,0.1-0.2,0.3-0.2,0.4c0,0.2,0.1,0.3,0.2,0.4c0.1,0.1,0.3,0.2,0.4,0.2
	c0.2,0,0.3-0.1,0.4-0.2c0.1-0.1,0.2-0.3,0.2-0.4c0-0.2-0.1-0.3-0.2-0.4C24.1,6.6,23.9,6.6,23.7,6.6"/>
<path class="st53" d="M23.7,11.8c0,0.2,0.1,0.3,0.2,0.4c0.1,0.1,0.3,0.2,0.4,0.2s0.3-0.1,0.4-0.2c0.1-0.1,0.2-0.3,0.2-0.4
	c0-0.2-0.1-0.3-0.2-0.4c-0.1-0.1-0.3-0.2-0.4-0.2s-0.3,0.1-0.4,0.2C23.7,11.4,23.7,11.6,23.7,11.8"/>
<path class="st53" d="M23.1,28.4c-0.1,0.1-0.2,0.3-0.2,0.4s0.1,0.3,0.2,0.4c0.1,0.1,0.3,0.2,0.4,0.2c0.2,0,0.3-0.1,0.4-0.2
	c0.1-0.1,0.2-0.3,0.2-0.4s-0.1-0.3-0.2-0.4c-0.1-0.1-0.3-0.2-0.4-0.2C23.4,28.2,23.2,28.3,23.1,28.4"/>
<path class="st53" d="M27.6,23.4c-0.1,0.1-0.2,0.3-0.2,0.4c0,0.2,0.1,0.3,0.2,0.4c0.1,0.1,0.3,0.2,0.4,0.2c0.2,0,0.3-0.1,0.4-0.2
	c0.1-0.1,0.2-0.3,0.2-0.4c0-0.2-0.1-0.3-0.2-0.4c-0.1-0.1-0.3-0.2-0.4-0.2C27.9,23.2,27.7,23.3,27.6,23.4"/>
<path class="st53" d="M22.4,20.2c0,0.2,0.1,0.3,0.2,0.4c0.1,0.1,0.3,0.2,0.4,0.2s0.3-0.1,0.4-0.2c0.1-0.1,0.2-0.3,0.2-0.4
	c0-0.2-0.1-0.3-0.2-0.4c-0.1-0.1-0.3-0.2-0.4-0.2s-0.3,0.1-0.4,0.2C22.4,19.9,22.4,20,22.4,20.2"/>
<path class="st53" d="M26.2,19.9c0.2,0,0.3-0.1,0.4-0.2c0.1-0.1,0.2-0.3,0.2-0.4c0-0.2-0.1-0.3-0.2-0.4c-0.1-0.1-0.3-0.2-0.4-0.2
	c-0.2,0-0.3,0.1-0.4,0.2c-0.1,0.1-0.2,0.3-0.2,0.4c0,0.2,0.1,0.3,0.2,0.4C25.9,19.9,26.1,19.9,26.2,19.9"/>
<path class="st53" d="M27.5,16.7c0.2,0,0.3-0.1,0.4-0.2c0.1-0.1,0.2-0.3,0.2-0.4c0-0.2-0.1-0.3-0.2-0.4c-0.1-0.1-0.3-0.2-0.4-0.2
	c-0.2,0-0.3,0.1-0.4,0.2c-0.1,0.1-0.2,0.3-0.2,0.4c0,0.2,0.1,0.3,0.2,0.4C27.1,16.6,27.3,16.7,27.5,16.7"/>
<path class="st53" d="M17.9,12.8c-0.2,0-0.3,0.1-0.4,0.2c-0.1,0.1-0.2,0.3-0.2,0.4c0,0.2,0.1,0.3,0.2,0.4c0.1,0.1,0.3,0.2,0.4,0.2
	c0.2,0,0.3-0.1,0.4-0.2c0.1-0.1,0.2-0.3,0.2-0.4c0-0.2-0.1-0.3-0.2-0.4C18.2,12.9,18.1,12.8,17.9,12.8"/>
<path class="st53" d="M20,20.5c0,1.6,1.3,2.9,2.9,2.9c4.1,0,7.4-3.3,7.4-7.4c0-1.6-1.3-2.9-2.9-2.9c-1.6,0-2.9,1.3-2.9,2.9
	c0,0.9-0.7,1.7-1.7,1.7C21.3,17.6,20,18.9,20,20.5 M25.8,16c0-0.9,0.7-1.6,1.6-1.6S29,15.1,29,16c0,3.4-2.7,6.1-6.1,6.1
	c-0.9,0-1.6-0.7-1.6-1.6s0.7-1.6,1.6-1.6C24.5,18.9,25.8,17.6,25.8,16"/>
<circle class="st54" cx="17.5" cy="17.5" r="16.6"/>
</svg>
