<?xml version="1.0" encoding="utf-8"?>
<!-- Generator: Adobe Illustrator 18.0.0, SVG Export Plug-In . SVG Version: 6.00 Build 0)  -->
<!DOCTYPE svg PUBLIC "-//W3C//DTD SVG 1.1//EN" "http://www.w3.org/Graphics/SVG/1.1/DTD/svg11.dtd">
<svg version="1.1" id="Capa_1" xmlns="http://www.w3.org/2000/svg" xmlns:xlink="http://www.w3.org/1999/xlink" x="0px" y="0px"
	 viewBox="0 0 81.4 81.4" enable-background="new 0 0 81.4 81.4" xml:space="preserve">
<g>
	
		<rect x="6.8" y="68.7" transform="matrix(-0.5022 0.8647 -0.8647 -0.5022 73.3383 99.7277)" fill="#007AF6" width="2.4" height="4.6"/>
	<rect x="4.8" y="22.5" fill="#007AF6" width="2.4" height="2.4"/>
	<rect x="4.8" y="15.4" fill="#007AF6" width="2.4" height="4.7"/>
	<g>
		<polygon fill="#007AF6" points="72.7,55.5 77.4,58.3 77.4,71.9 65.7,78.7 54,71.9 54,58.3 65.7,51.5 70.6,54.3 71.8,52.3 
			65.7,48.7 52.8,56.2 41.1,49.4 41.1,34.4 35.5,31.2 34.3,33.3 38.7,35.8 38.7,49.4 27,56.2 15.3,49.4 15.3,35.8 27,29 32.3,32.1 
			33.5,30 28.2,27 28.2,12 14.1,3.8 0,12 0,18.8 2.4,18.8 2.4,13.4 14.1,6.6 25.8,13.4 25.8,27 14.1,33.7 2.4,27 2.4,21.2 0,21.2 
			0,28.3 12.9,35.8 12.9,49.4 0,56.9 0,73.3 5.4,76.4 6.6,74.3 2.4,71.9 2.4,58.3 14.1,51.5 25.8,58.3 25.8,71.9 14.1,78.7 
			8.6,75.5 7.4,77.6 14.1,81.4 27,73.9 32.2,77 33.4,74.9 28.2,71.9 28.2,58.3 39.9,51.5 51.6,58.3 51.6,71.9 39.9,78.7 35.5,76.1 
			34.3,78.2 39.9,81.4 52.8,73.9 65.7,81.4 79.8,73.3 79.8,56.9 73.9,53.5 		"/>
		<path fill="#007AF6" d="M39,20.9c2.7,0,5.1-1.6,6.2-4l5.5,1.3c-0.1,0.5-0.1,1.1-0.1,1.6c0,3.4,1.8,6.5,4.4,8.3L53,30.7
			c-0.7-0.3-1.5-0.4-2.3-0.4c-3.7,0-6.8,3-6.8,6.8c0,3.7,3,6.8,6.8,6.8c3.7,0,6.8-3,6.8-6.8c0-2.1-0.9-3.9-2.4-5.2l2-2.7
			c1.1,0.4,2.2,0.6,3.4,0.6c5.5,0,10-4.5,10-10c0-1.9-0.6-3.7-1.5-5.3l2.2-2c1,0.6,2.2,1,3.5,1c3.7,0,6.8-3,6.8-6.8
			c0-3.7-3-6.8-6.8-6.8c-3.7,0-6.8,3-6.8,6.8c0,1.6,0.5,3,1.5,4.2l-1.9,1.8c-1.8-1.7-4.2-2.8-6.9-2.8c-4.1,0-7.6,2.5-9.2,6l-5.6-1.3
			c0-0.2,0-0.3,0-0.5c0-3.7-3-6.8-6.8-6.8c-3.7,0-6.8,3-6.8,6.8C32.2,17.8,35.2,20.9,39,20.9 M74.6,2.4c2.4,0,4.4,2,4.4,4.4
			c0,2.4-2,4.4-4.4,4.4c-2.4,0-4.4-2-4.4-4.4C70.3,4.4,72.2,2.4,74.6,2.4 M55.1,37c0,2.4-2,4.4-4.4,4.4c-2.4,0-4.4-2-4.4-4.4
			c0-2.4,2-4.4,4.4-4.4C53.2,32.7,55.1,34.6,55.1,37 M60.5,12.3c4.2,0,7.6,3.4,7.6,7.6c0,4.2-3.4,7.6-7.6,7.6
			c-4.2,0-7.6-3.4-7.6-7.6C52.9,15.7,56.3,12.3,60.5,12.3 M39,9.7c2.4,0,4.4,2,4.4,4.4c0,2.4-2,4.4-4.4,4.4c-2.4,0-4.4-2-4.4-4.4
			C34.6,11.7,36.5,9.7,39,9.7"/>
		<polygon fill="#007AF6" points="48.6,70.8 47.4,68.8 39.9,73.1 36.5,71.2 35.3,73.2 39.9,75.9 		"/>
		
			<rect x="31.6" y="69.2" transform="matrix(-0.5018 0.865 -0.865 -0.5018 110.1859 77.3608)" fill="#007AF6" width="2.4" height="2.4"/>
		<polygon fill="#007AF6" points="75,69.8 75,59.7 70.4,57 69.2,59.1 72.6,61 72.6,69.8 		"/>
		
			<rect x="65.6" y="55" transform="matrix(-0.5019 0.8649 -0.8649 -0.5019 148.8852 26.7268)" fill="#007AF6" width="2.4" height="2.4"/>
		
			<rect x="11.9" y="72.7" transform="matrix(-0.5022 0.8647 -0.8647 -0.5022 83.5516 99.7639)" fill="#007AF6" width="2.4" height="2.4"/>
		
			<rect x="26.8" y="32.6" transform="matrix(-0.5021 0.8648 -0.8648 -0.5021 71.3138 26.4749)" fill="#007AF6" width="2.4" height="2.4"/>
		<polygon fill="#007AF6" points="36.3,47.3 36.3,37.2 31.7,34.5 30.5,36.6 33.9,38.6 33.9,47.3 		"/>
		<path fill="#007AF6" d="M63.2,19.8h2.4c0-2.9-2.3-5.2-5.2-5.2V17C62,17,63.2,18.3,63.2,19.8"/>
	</g>
</g>
</svg>
